-1.0   14.237    6.824
-0.9   17.582    3.668
-0.8   21.757    2.834
-0.7   23.348    3.759
-0.6   27.292    3.101
-0.5   31.662    1.898
-0.4   33.301    2.305
-0.3   35.840    2.217
-0.2   36.931    2.153
-0.1   37.011    2.315
 0.0   38.424    2.747
 0.1   38.744    2.765
 0.2   38.062    2.710
 0.3   37.065    2.573
 0.4   35.129    2.435
 0.5   32.333    2.217
 0.6   29.706    2.009
 0.7   26.242    1.749
 0.8   23.480    1.535
 0.9   20.097    1.288
 1.0   17.134    1.077
 1.1   14.369    0.914
 1.2   11.515    0.753