-0.05	288.47	4.26
0.05		292.77	4.68
0.50		286.66	3.32
0.70		279.62	2.80
0.90		278.26	1.99
1.10		263.53	3.15
1.30		246.98	1.81
2.20		187.39	3.55
2.50		157.63	3.29
3.05		122.46	2.66
3.15		114.26	4.04
3.25		103.95	1.22
3.35		91.24	1.93
3.53		86.88	2.56