0.10000	185.33228	1.29226
0.30000	174.74762	1.22367
0.50000	166.10794	1.18598
0.70000	158.14037	1.16724
0.90000	146.22438	1.11050
1.10000	132.43951	1.03673
1.30000	119.71779	0.98832
1.50000	106.55493	0.93777
1.70000	91.000700	0.87423
1.90000	76.726810	0.81323
2.10000	62.267750	0.74506
2.30000	49.481880	0.67220
2.50000	35.382970	0.57216