-1.2   22.058    4.640
-1.1   25.611    3.016
-1.0   29.230    3.556
-0.9   32.378    3.883
-0.8   36.666    4.634
-0.7   43.563    6.184
-0.6   45.530    5.936
-0.5   51.348    3.000
-0.4   53.070    3.643
-0.3   56.732    3.257
-0.2   58.606    3.399
-0.1   58.362    3.409
 0.0   60.844    4.210
 0.1   61.010    4.211
 0.2   60.915    4.208
 0.3   59.050    4.096
 0.4   55.770    3.907
 0.5   52.220    3.615
 0.6   47.773    3.339
 0.7   44.318    3.114
 0.8   40.310    2.870
 0.9   35.796    2.541
 1.0   30.993    2.213
 1.1   27.961    1.993
 1.2   25.212    1.811
 1.3   19.799    1.481
 1.4   15.081    1.180
 1.5   11.040    0.945